41.81539965002607,84.02605595410748,129.1210945503246,125.8143496515138
44.83395808276247,83.11128586744621,128.9585619028645,127.9676524806192
44.39505275198755,83.865652075456,128.1136702058899,127.9544357577604
44.12969591288256,85.2051244627845,129.5310988411558,129.8421598620358
47.73777550470831,83.77401797991315,131.1983183715667,130.3772835416451
46.98390951589728,82.26501466719021,131.9294491361211,131.6095373798747
48.37710942576124,81.54858982134782,129.3984452597848,130.8706640729337
49.28268683293572,81.63305093870184,131.8545666168444,132.6065682674452
51.95869691685694,82.77050970529039,133.8452543138579,130.6206016079297
50.33327053401681,81.20400151455333,131.3636943782903,133.4258266025534
54.41058398712756,80.17329425303697,132.6047005984996,131.973667956516
52.65882038315153,77.98245798153643,133.5795801001666,133.1194096110362
54.09667225300637,79.26904654488092,132.9101102449415,131.9626992340444
56.64553495522163,80.11202931029271,132.8899727183941,133.7387782577686
54.80023256803243,78.48018677333596,134.5864117599488,132.4244746269188
57.19773373491657,74.95395264457964,133.7729957921316,132.987120587586
57.21589919211972,75.50150193608469,132.1706295951817,134.3181535013032
58.68142602665337,75.91719548171753,131.4767279569877,133.0377562069807
59.25348246761355,75.83418981429654,134.5731139116997,133.5984964994633
58.6605246515158,74.69542474187791,132.8065174045261,132.3169907980321
58.48031689329,73.41900957843292,132.4241976993447,134.0429525245901
61.27845399345167,71.19659809087324,133.128289419386,132.0473416704956
62.06245234866726,71.94042013499332,132.696840901761,130.042338911839
62.32460911073018,71.3761674039348,132.4271534485385,132.8914232349948
61.861840146023,68.90363343239449,132.0960482847277,131.7626267281277
61.9326724967388,67.58120943436482,131.2122457888775,130.7018643409608
63.43900327317533,68.54922012884676,132.5137143127402,130.6940957201443
62.85987236603192,68.56255539043137,131.1932411013697,129.8042046722229
63.2964342539139,67.97093745357033,132.0380312278459,132.1421400872991
62.90102701984478,66.47197048224777,131.2442995267973,130.7266914952482
65.56804136060921,65.94053230013897,131.4494302425286,129.5232038803521
66.27086595952674,63.94500044639105,128.8652294237348,132.4756100830609
64.90198934666647,63.73910102768032,129.8003599974516,127.579869611094
64.55109699290263,64.83838554320124,127.8912437740969,127.7363797604529
65.85284009489035,63.21102925536076,128.4442391603944,129.0053532458165
67.26097530211865,62.12610122009757,126.7958368438533,128.3504073458502
65.08035371377075,63.96162306145597,128.8365891377654,128.0905569667051
64.6249708954428,63.12335486382547,127.1425681974011,127.4637575123556
65.37957414571638,61.89194248940856,128.271660869423,126.5282628273109
65.0740476539378,61.35747035734786,125.5023148565622,126.7121300979761
64.71772676645126,62.60245756167395,127.2060700351098,127.8894574014268
66.56294926469896,62.33811139047535,128.1533808108262,125.1492093666491
63.78980249906765,61.67287277587413,126.214914439249,126.0951245220369
64.70070355532899,62.13789350844248,126.3054504221007,125.147282933854
64.54390036118043,62.3429331564042,126.0521761469071,125.7936353830313
63.08250423976912,62.33418170200569,127.4309062051967,124.8341162651141
63.05963785249802,61.70552959082114,126.0312158949504,124.9663196526774
60.969699842912,63.61502529738421,123.7014157254847,125.5090699520567
61.80743977358925,62.14176955666571,125.1578554178239,126.1235833267476
62.4662909779849,64.87600952464537,126.9097723073141,123.6690996134624
61.3800473913958,65.0295659807568,126.7606925818104,126.4882273274589
59.55413750115146,63.6845054663272,124.764372727801,124.809456982695
59.00015470961432,64.03984576537738,124.1668381614718,125.549933547172
57.5011357265012,66.03128794513295,125.0534547577525,125.3702686328241
60.0695822071559,68.12300003912601,126.7114167692898,124.5236892566466
58.06369324159634,67.92091943965126,122.7233849122558,124.6948196280135
57.62780207056098,68.30234299760102,124.0507504521936,124.777954716089
56.9125101951225,69.93821276527086,126.1929294027683,124.3051606465625
55.56385096986146,69.13042250296277,125.1160980277477,123.7313221094123
55.74354864448834,71.79409462360398,125.5558267920316,123.895565299364
55.40566180665942,70.93828568353229,124.489074484142,124.3117315317601
53.48103931572204,71.93092082747164,125.508678718053,125.3695593187799
54.14268792737141,71.90721064703105,124.4747495237076,125.1267955576651
51.61386591663864,72.70334813990193,126.0532728978104,124.3084305648957
50.52383669017041,73.90891295666586,123.1853058123943,125.2978826098224
51.49774753058595,74.45529369007663,125.5572861085244,125.7566551257102
48.13605251968331,75.65802810200177,123.216264799866,122.572973222544
48.46410710670372,75.61111368023155,123.4205607248011,125.3036835947926
48.55656936528941,77.853779468504,124.9596035028553,124.4393902782999
47.99903844253005,76.03979175635742,124.3700413891128,123.6367501445294
45.07553449533122,77.96786757013822,122.4700716334951,123.4920468579872
45.79537017606604,77.61806233036314,123.8828306850914,123.7638564222897
42.79459756336254,79.39500614503086,123.3890869302373,123.2351132624089
43.19193750273208,80.28636350113528,122.9738399060217,124.2911337096658
40.98045892927264,80.12202781602223,122.6254848561603,123.8346129527559
39.09212968662847,79.83655556489798,121.7804508375359,122.0774848647279
38.90850985839472,80.85974554488871,121.9687058417169,121.7429457352115
39.13254889734199,82.46452341922712,122.0469691982385,121.3503571635286
36.7511264251341,81.62372705080243,121.3214035148734,119.2480593223712
37.76376940622559,82.85707913202484,121.213053249307,120.338425425618
36.85417525886919,83.06760781960411,118.5420300651654,118.979442214972
34.65242679246445,83.79029765114028,119.8706833554846,118.1358350623903
34.43418125999008,83.9938205813185,118.3179009980282,119.6991000375344
34.15999563610482,83.96110703466064,118.628230899946,117.8298407534083
31.96941464839884,84.34454020014235,116.9984686317902,117.5006885068228
32.45565902246432,83.28291686065005,117.4022424066535,116.6418298651027
29.14856349622674,84.53757572784752,111.8904750394039,113.3996562772585
31.5418153501284,82.16706487709392,113.5898320749079,114.8468779246367
29.17805286266849,82.62973650072074,113.4360940395875,113.7112105969877
28.17588404504946,82.04009819019485,111.1431185157412,113.6531898313691
26.27985472247592,83.73945011558301,111.4228639377327,110.2152443554714
25.71870193957875,81.98002306553322,109.2577323618404,110.2822666140687
25.9380680189262,82.91318321893607,107.7392236708745,108.952787791062
26.23771816116516,80.8540494025289,108.4680505916623,106.7894536998713
24.40102414914915,81.79445219215501,106.3454756498093,107.076909162964
22.67259252812921,82.27655703222061,105.0611749915801,106.9654867893772
24.98427562796643,79.53218616669891,104.8548084730729,105.5480915798478
23.14548525891358,77.68272841416957,103.1717330688263,103.0657333167927
20.23524859619625,80.09212177824534,100.2762367474057,102.4008950992006
22.21459213808948,78.10785422883413,101.1564899286439,100.9093165018648
18.63035804477304,77.75450840971645,99.65912438215609,101.301221199583
21.49527642110128,75.49937128836484,98.0658442503785,97.59565057325433
21.10016862299636,75.94493166801364,97.05423901940732,98.42641220644596
20.4055396977952,75.96448198452161,96.68187934512822,96.33608867504249
21.11124312582357,75.01476244479609,95.50390604107496,97.11356980600296
20.06369724265278,73.7873108688657,95.01957383112239,95.09017985935013
20.54853475641634,73.92431780740574,93.6557934315053,92.62700462091763
18.46209327037666,71.84682225045024,92.62108076361308,91.95906169748221
19.05155418608691,72.92859487239406,89.55714676819589,91.43639520996584
16.73825693311455,71.1441410417444,90.16672907792007,89.53999206564588
19.03308441560836,68.95254486246242,88.58277665802076,88.21596419850741
18.60862253500978,69.93939443877065,87.18902015205452,89.48821925123421
19.38135500125613,69.5438897388411,87.58782321101648,86.74392725302417
18.40177198253515,68.56244984786282,87.92069091691597,85.877956696303
20.36200286195162,67.28281829760152,87.13528620820435,86.8535177984519
20.50223953321317,66.88760602295029,86.40607017482702,83.92215080420716
18.78071071673011,66.06645947664212,84.90604276539844,86.36494395625236
18.6823259366828,65.31862038164697,87.07397524774397,85.17794871063093
20.52428974625154,65.40818783336695,84.56933689387769,84.33334507957993
20.60305414691229,65.19515484705312,84.85610929811645,85.23523578112243
19.50229722886115,64.84238016856168,84.32818757352902,83.81068676442581
19.43387093763807,63.93553809044847,84.45775588374198,83.35282237522398
21.47819577750422,64.35106339262417,84.15475063883075,82.94033802975285
20.10215369471094,62.43099740514007,85.91860933139093,82.96830818800343
23.6203375604695,63.05291683249598,85.55412336611219,84.21355763658057
21.35934724798125,62.16437423038124,85.60465996673044,85.11528620987431
23.41152824142615,62.53123630964776,84.04854556887823,83.87816134390678
23.62952815057514,64.11109604061434,85.11034323202622,83.16894208525092
25.07878803970207,62.47676806602059,86.30502277815275,86.74979247222993
23.44125917596051,63.19116371266072,87.1163524938876,87.64851654182327
25.07998460117117,61.93619421901966,88.18117386022737,88.14198398203847
26.78847490612236,61.58531706828721,89.05499556672881,88.45171596483694
26.9338334669131,60.96602035108489,89.61285857260125,91.37822777794493
27.80576910341632,62.75165781362296,90.35577996175979,91.53050806142346
27.68215726089462,62.09487512797282,94.48316164873683,90.95364171745753
28.76719443418743,63.144391386946,93.06112395302365,93.31987130074339
28.32943125991272,63.70680097157419,93.18878974205151,93.6296982705785
32.06233642131437,63.22237808452628,95.05287569731527,94.54566164819826
33.35646713999112,64.35868769254054,97.51443056308888,96.22112203375811
31.82771170444094,64.57982363499147,98.49097855881733,98.63819069258153
34.19938980413566,64.46983877601362,99.2620636267136,98.50699979947696
34.04776731760953,65.92043736927492,100.668213637009,101.1958764757514
33.59532702248097,65.4689965516492,102.3337320755801,102.0084015135554
37.40130005105932,69.42918940982059,103.7368708689357,103.5600630675034
37.2687352797024,68.51172304365443,107.131787404186,106.5962249283747
39.31759813990115,68.47434769358577,107.2016867851121,108.3568591966373
39.04741666069901,70.85511848659188,109.2397055322005,110.3036786818468
40.30116591963358,70.95805120974711,111.4225651625873,111.726148581539
41.04418594122,72.2764809374755,111.9285632816765,113.3029451827407
43.39171708542587,71.42573072482395,115.0166511500381,110.6721367488275
43.24362173694117,73.5119321546801,117.077687172077,117.8636809501136
44.26559903736456,74.3686277040261,118.0808533841805,118.9902921493018
45.83089307735572,74.79255603362236,120.2533427322086,119.9857006545447
45.45259622476893,76.95198501854225,121.4880034555457,122.5595727752946
45.73591637729702,76.49151369119534,122.5851923488427,124.7134968478586
49.26193450648313,75.79783055574903,126.9945666747709,125.2216000982176
48.9057045986458,78.96781854291544,125.4569131316558,126.6408797597557
49.08431548756121,77.50969348532026,127.9148376212067,128.9356792024772
50.15051969165869,79.59648649630068,127.0633541401217,128.4763689157199
49.84382722556082,80.53367620400496,130.8910444942686,130.5523207659715
53.45649938099221,78.62810000151076,134.1591369971788,133.5514490584946
53.69519397946199,81.56466820441267,135.5211047056489,135.3081788472725
55.95091285065595,80.94713282764023,136.1427751953579,136.6829220717325
55.43756807860741,80.48433046119821,138.6948803341012,136.6776766257964
57.43650567866943,81.25940948166524,137.1901253313052,138.7885783783139
55.82666367462291,83.47782334604985,139.8777369894542,140.0324291473474
60.21008212769757,82.40866433059689,140.7718588082505,140.073973702043
56.38396270772301,81.32703263724719,140.7820514993509,139.8891507069683
56.20787194225784,83.1915289797596,141.576947493144,142.7136813247751
59.14548992858843,84.72714279750727,143.8671677577185,143.1437360871766
59.89172802985882,84.51319156395664,143.4697595025648,144.8595703148053
61.02531819471687,86.02918794049893,144.9618329470333,143.6921990249791
60.22793055803376,82.74639238784431,144.9859451373066,144.4537133237453
59.87708871292905,82.46468032554399,145.8272139160307,146.4981492713343
62.29855012468824,83.7327762166496,146.4437868166486,146.0056978776612
62.89864765456761,82.89593854455315,146.2106340094693,146.6668729853921
63.75817258985435,83.85597279767323,147.536407609323,147.855162742143
63.89688841016473,82.21517492218776,147.0489427027444,146.854804660189
63.92766565752648,81.72033618885679,146.9002844343673,146.9965432739095
63.88786177003252,81.86222006929886,145.8686889203217,145.1117332287811
63.58786748020714,80.80325953667656,144.9319366600787,144.5699449559753
63.95628121627752,82.22382135291636,146.8338657496122,145.8671459627689
64.49182450952512,81.87477629670121,145.2413982340332,145.1854563476269
63.17119881367523,80.62646530657503,144.8461101541021,145.7376602437316
63.76117118758436,79.00161058491003,143.4960691707974,144.6758305578514
64.27249309667251,78.02512972884071,142.9600551077781,143.4331910182784
65.36026226174093,78.20148682917929,144.3926305386659,143.4502682923524
66.13163031849314,77.21843118841048,143.4298484115448,141.0881310372916
61.40384355850966,78.46707469206,141.5002352202013,142.563127692415
64.9075428413515,76.91096688535724,140.9901346753454,141.3607546912164
63.1455116633948,74.87298623614215,139.4564099963533,139.8731272734288
63.45795655966197,73.82623411301799,140.481503440107,138.7274711938488
64.17705444070688,73.86835795382471,137.803015143229,140.1428821627545
64.27532034766314,71.00949245934592,134.7192710321235,135.3635190585125
63.14407734909671,71.75574662621727,136.0599094835768,136.1582149718442
62.5051988184482,71.90736956355488,135.9519833198427,134.7009691076698
62.85499275873121,70.92368824212527,133.1725156191413,133.5508026717893
61.4537684639881,69.6906771734964,130.9753467410301,130.3768297155501
62.83816427178572,69.0570781617957,131.129315484275,129.7794101408756
63.44266772778,68.15258766656932,127.11166954396,129.9809139639563
60.20112036642519,64.73519440407397,128.514152306182,129.5996348727701
58.49551898863452,67.07274231947042,127.6540025799031,127.7499940853153
61.25865514329474,64.8189533645624,125.8562412289487,125.4672517414087
57.50924289218648,65.91847019734843,126.68088887209,123.8644108221521
60.80838717707417,67.73702970825225,124.8423662734112,122.7366708162018
56.96650510206823,65.88221721294639,123.27760005132,122.8701920860067
58.39371188248327,62.73806379608818,121.3998647837819,120.1020217253928
56.36273863417665,63.9106821463966,120.3894327440996,120.4423912054183
55.77410878131494,63.56657725585823,120.1269502185235,118.5859839260669
54.62707700317926,62.1977513600495,117.5035340478029,117.6222307339983
54.13939323164043,60.10366161734339,117.5955065294678,117.9207757941817
51.76478308218003,62.21818047452605,117.055623690472,115.4625369630614
52.92343112088528,59.02747717949674,115.4453784247017,115.3935205619503
50.28477659242064,62.89517976076653,114.3235978494657,114.1050259350319
50.27048828564514,62.83820892580964,113.4293562502122,112.0040888846169
48.41449882590447,63.00896465302348,111.2911996462518,111.4399503952494
49.40412266585673,63.67771170883264,110.3894189355262,110.9370014950402
47.95751488511731,62.73691184710852,108.1961725342601,109.5281905523505
46.8275472946174,63.83659791141323,110.0032822491249,110.8675761265536
46.31529136055565,63.05128493727101,108.928907325228,109.2269516638763
46.81469198117549,64.6041624014189,107.2635326407082,107.6084525132714
43.56627009039881,63.7406829244124,108.2192551547968,105.5595581523117
42.24231358429592,64.71699349415663,108.7950797853905,108.0938962845928
42.31984505362296,64.10106373912384,105.2049670292875,106.6375231679122
40.62695544081819,65.9147670265496,105.6254276067929,105.311159454099
40.82150151656995,65.92275350450851,104.679546145413,104.4681805269094
38.62644348832926,65.7503994960943,104.5344666182544,104.7450771454593
38.87343283866919,66.76736791051836,104.4404392127766,104.5204654198332
36.2928085734785,67.05583653710711,105.6667717713551,105.4443688654655
36.55917015013208,66.73730904640495,104.0062977661673,103.7260203480703
35.50246898446443,69.04518024834472,103.4481623894057,104.6188831990471
35.07968440855802,68.31902113332619,103.6687632706573,104.0917407284232
34.63953994892277,71.41070779682778,103.906790114331,104.0570814573802
33.6321532879347,70.49744719191767,104.2895662658348,102.7873426366934
31.39449495054864,70.40601668714882,103.7691179713164,103.9126314233152
31.58812311795123,73.79495120916494,104.4420616376382,102.9324597959235
29.69114526230943,73.93205948621097,101.5932939237192,105.0699633831227
30.01121300874245,75.31717838354042,104.6523206726839,104.0577012045385
28.064617253302,74.79460987936969,103.9291497589763,103.6694250061012
27.66198801615984,77.00975011087704,104.0073553573367,102.8315845853174
26.65930563917701,77.06390587926707,104.1442086759619,105.1180499161234
26.54861550498644,77.8125564284403,105.8260313313885,102.7261503150075
24.56287671151675,79.11401242935003,104.0279814620699,104.1115974985499
26.31779424716758,78.16076200057154,104.9000357211776,103.8272314722932
22.18939008543358,80.8212047890578,104.8415056828055,104.6010709604958
25.89567968813939,79.94222274854629,103.6217079571345,104.1156152637123
24.12982661071144,81.40783134099277,103.9744620626861,104.1469773120954
20.87329452395927,81.79851421154457,103.0364841287937,103.5924775574594
22.3287375388425,80.55114819094452,104.6953982398979,104.1616995254832
22.61155686981203,83.24367469548551,102.8969618988554,103.6171053770187
21.35700799875077,81.48198301585667,105.3261983323273,103.4825815738261
19.81794613010877,81.99550734990505,103.7016042006494,103.3741886841838
21.20550986321186,82.54864494212586,104.8964692467124,103.8148359964114
21.02993838703874,84.11888937376216,103.5219156323058,102.3934561311357
19.25546512649937,83.87422399636398,104.1873904757702,103.7382855770058
19.64631928633445,83.98770850347493,103.9527727171683,102.7878573999824
20.88110455175642,82.8864857569735,103.1318872945209,104.4355627262897
20.976257308405,84.65548673602113,102.3927867870102,102.5788034243435
17.97280942302699,84.11722991575066,101.8533381543171,103.9029711685453
20.2105963846943,83.6649132420753,104.6370699259862,103.4080803032808
19.07462678977284,84.28496484109765,103.3785808619532,103.0938491346498
18.17512342733497,82.98999022957507,103.5654463109464,103.8532260121729
19.15921566285231,83.64196115038943,101.2481920333174,102.3427056628424
19.51173177618863,83.71548776807799,103.5276328392013,103.9917812119713
20.00515417929762,82.54583198585601,102.9453895205424,99.92904687155368
17.94495001189172,81.63213115623309,101.490591988686,99.87688141660074
18.02209275352471,80.48950249531239,101.688775027362,101.1482107576018
19.7930532378585,79.98484398181803,101.2719200442127,100.678352602473
19.12320895206746,80.5787776775161,101.2997417604479,101.3065545128065
21.26162050843493,78.67966490620417,101.1836310547775,100.5600711428091
20.92106993112786,80.33965296912369,100.8017901589806,100.4625859158764
20.808698515046,78.87089878169617,99.90652370774426,99.15607040350041
20.72060201280011,77.73450928080632,98.67725795131105,100.1172695345039
21.50767999597678,77.54919576614972,99.88614075643639,98.04255864358748
22.31617751573239,76.97042101303437,98.752792091611,100.2754965163874
23.89418008084001,74.95237220603981,99.04666141922462,99.57319079752848
23.91611704274319,76.47516510441871,98.26945556513165,97.968798097807
23.18944804735484,75.7097139609711,98.25188868182171,98.35095531957597
25.85562167498149,75.05571194088509,98.14256689181668,98.177090262664
24.91002062361618,75.09482629720328,99.46661430799887,99.794783262571
25.16029099472478,71.23482160149022,98.3827193867574,98.13876374117275
26.34508374004272,70.93762835653982,96.80140870423395,98.03754196168774
26.17267790060974,69.00830935317133,95.97658732337666,99.34268966105164
29.6988617874203,71.85409503471071,97.49037485419305,97.65497057979431
27.98114387701622,66.51085221672352,99.28997581133034,97.06751731414737
30.08122946099414,68.22038960825878,97.72056179949222,97.41852739983472
31.98739441319704,69.58427415982356,99.04066778610775,95.78170700675277
31.62235171776448,66.60074302729848,96.90064663089436,98.6787281736394
31.73928365972422,66.04372010537253,97.96446069427944,97.97623732250899
32.37256213744821,66.56258442379223,97.94309378293498,98.00261282741646
35.97538977968318,64.6317646928477,99.15491883328315,99.98102476056724
34.59778694688612,63.60901565038309,99.95867673785031,99.46019074731338
34.7423097746861,62.29325541565266,100.4421371975936,99.02620073978981
36.85619948955976,63.62492498132407,100.9618761694002,99.93863654648831
39.85526473108744,65.30705759286495,101.348309452267,101.6884637264842
37.01540911219926,62.69382240556504,100.4154599264487,101.068175815297
39.68253164956953,60.53547034174282,101.7113086411973,101.7953942319984
42.59164980686524,62.92984754599189,104.682864886757,103.4543081869845
41.62844395238653,64.33693631034842,102.6207609026647,103.8219533029472
44.59504424198978,61.9013709117398,104.4263203009448,105.1809164614652
45.87952655854026,63.52892108828554,106.4226848715621,105.2815704283469
45.07573367404351,60.24588607562301,106.0121660233159,108.3810182774564
44.96563484928848,61.09573651305091,107.4098152908294,107.8431024331985
44.88038226390584,61.15837916188813,109.0331385088086,109.7988231787828
47.35815609703803,62.2201268586667,111.5053805939754,109.4199550889099
49.02074900476071,61.94714202550715,111.4697244774267,110.314955417608
50.75446140100782,63.73660326775601,112.2148719207105,112.5359438002203
51.69007888620648,63.53267631484326,113.4927293505574,114.1646238162658
51.04232443284069,63.84863577789864,115.4162570287048,115.607335657493
52.33199523643479,65.82347935762179,115.7489167433484,116.376470597968
53.13639004983504,65.696110903156,117.8455440902276,117.8725512184835
53.4753224499451,63.93370640092748,118.7100229017761,119.0735123215797
53.73647843129434,65.93579719027962,122.221268851448,120.7979778904624
53.65538522624809,67.87897125637913,120.699746445251,121.3510778899028
54.73781435650191,67.40448903002692,123.2677349944588,123.1853822670328
56.57066083220652,68.20579851262879,124.4087688127509,124.8803490703049
57.41131337540408,68.40305300042402,128.5435655074367,125.6682616273096
57.58209562557454,67.06320579377869,126.5881600980609,127.2874018867212
59.20375530821825,70.22005479594021,130.0732978444054,129.0683305537001
60.6227216091776,69.26692531435813,129.8953367907258,130.0420132855407
60.71545722775205,72.48686961356179,132.4589611033367,131.1657716312768
60.51465345231393,71.19625912355809,132.2334131908259,132.7616358827803
60.32783475746769,73.3505882224548,134.6991190843781,133.8769925824218
62.8144983078989,73.01552787540578,135.7661973615688,135.0758813630525
63.11817514421499,75.48510920317537,137.6370088747703,138.1585469959153
62.58910214264494,76.03459717959286,138.023094111015,139.6682517863133
63.88110374007743,74.88673943094875,138.7490125287821,141.2582071514521
61.9446914975494,75.85233947954029,141.456914152797,143.4798307541436
64.6903291818943,77.42119252414116,141.5583427648991,141.345001361289
63.1961411186783,78.09940289518332,141.3648258809779,144.5372116754932
66.36515069381593,78.41301499414791,144.5996585257146,143.9719447529124
63.84863114286264,80.60887840314619,145.5645047922602,143.1576096373952
65.6456418565726,81.56641609279389,146.9141683371486,146.1804486840154
64.77474139082241,80.42111297994377,145.201849898187,147.255549430872
64.74494569012035,84.44246468858653,146.2810913616244,147.4789574864964
64.53785333133428,82.97096808348878,149.249389537688,146.5174163764081
64.44450297996063,82.90329367556643,146.9284045382609,146.1319263103153
66.41381274349007,83.02131907456203,148.1609915444917,149.1030856162748
64.63307387493752,83.08160271467348,147.2486491583466,147.324919852565
63.62043688174465,83.1902702035581,147.1537586538022,148.2364849007724
64.57715878506475,85.44577399648118,148.468893865772,146.3825108390861
63.74776996417152,82.81885191872033,149.8289252201778,149.2454038394723
64.35065357896785,84.01858144356045,149.1255758432681,148.2081383599402
62.1753160049764,84.6912042856754,149.1566239003741,148.2849855836556
62.02559999193765,83.81939921930285,147.3767720503424,147.547598164244
61.50425603443659,84.99129370290527,147.11168424946,145.3196174634796
62.27760788102194,83.32819826665826,147.490027082645,147.6742454397464
62.31988416372938,82.83239130244824,146.7275217544715,145.1479941967815
61.69934751823076,82.17824526390496,147.082429824087,145.4004230801401
62.00220539899322,81.55522679204039,144.9941665145859,146.9001705039725
59.55405265444882,83.44505124883607,143.5375601922688,143.0693797732833
59.60397933035902,82.35983623051368,142.5878989119826,142.9832535410251
61.09534394642509,81.43856354780115,142.9518664406764,142.9016643719701
59.25505157118501,82.76942132918256,139.3648299277932,141.3445083051539
58.45388374738531,80.90118788286495,138.1972512648822,138.7873440058297
55.82645106485643,78.76508157356639,140.0865208514883,138.2378639532141
57.71316321434788,78.75437302156458,134.9682545872884,136.5624090615423
56.11362224318762,77.68675851400654,135.6501077829386,134.7003678372092
57.31001589877555,76.13720173213558,131.9961198004038,133.5532491730652
53.41070965149105,77.18981584879937,132.0158765843957,132.8779053857123
55.27810670698568,77.32035473179157,128.8870560638422,129.3987605319546
54.11674051417443,75.7862629715283,128.7258565539555,127.5710434720503
53.18698385735208,75.41997200285297,130.0865645194707,127.0340960261569
52.77370141613971,74.27614858416156,126.1255368156481,125.1371273958978
49.87765590161207,73.87183479389182,123.5413380251988,123.2121498484727
47.98521253399627,73.63449541921779,120.8461090825575,122.0443496511062
45.78343896017743,70.2943660869833,120.3300751046932,121.0408519104503
46.96124618119509,70.57258012182996,118.5065818892946,119.2708936234342
48.1090571805253,70.15084718237162,116.657667548449,117.0539590756751
45.08737080877739,69.35641917044502,115.0340611690025,115.9689524460372
43.80149487640426,67.21141073645464,114.5796151085136,112.3109985406995
44.25404403692797,68.60811162151688,111.8904380967224,112.8315915717566
42.54112668717117,65.5239955615538,109.9770721988973,111.9973294630539
41.68370981351141,65.57946541333762,109.3113258921136,110.6623172022148
40.76587395089651,66.42132343887202,106.6723604586527,108.8689119917282
40.06719622694481,66.62809446548252,105.7985865967623,104.680186501841
39.75904937970687,66.42650430925049,103.5770589108103,105.2614001405189
37.02520546433455,65.77087649207591,102.8536883787439,104.0134386603372
36.39987601913737,63.52431817941803,99.99966876955695,101.0054783841809
36.51768984340654,64.62310699736216,101.0717159506085,100.7874083440807
35.31982150821196,63.67167564643255,98.810974293255,98.27560713336048
34.14531748271174,63.96664394942338,97.15600091730093,95.75336397927299
33.72694958045882,63.54337197226717,94.79204606440778,95.68246614620409
32.08784262375203,62.15956793054342,94.64414519281756,95.03863314984697
33.29794796383213,62.15233907235594,93.67051406235076,94.22108632880142
31.00150290931301,62.86098251689264,94.03263703721683,92.75777650747895
29.48534104552398,63.49503989079292,92.41025290444261,90.55362021759362
30.06350973484521,62.84517077284119,91.89313935126346,91.49660285728791
28.25908873925887,60.80996453534313,91.17950916141987,89.90125778842012
28.44396578112244,62.17352104639713,89.98516110395171,90.11055331867701
26.48543100285502,63.1831082138766,90.16502009303376,89.89535378575448
26.45519513543668,61.90990640598351,89.33872769421399,88.44878994048757
25.28661642545802,64.62550936089448,88.56913194488263,86.49582876054922
25.17413573731636,62.74817347486653,87.91938768387051,86.82390616691009
22.52700861957611,62.59884481834943,89.66105079609156,87.67435936701597
24.74285811823972,63.92839031062068,89.43714626721537,88.50454322455047
23.57813919143195,65.28867028684985,87.51801695969559,88.4270062325168
22.52502185085743,65.90322250957469,88.51886701844559,86.32980201596988
22.18031181929783,65.99674547482159,89.00522333254121,88.84315958904081
19.67205189091608,67.11725199055624,88.5921565665045,89.70222880279456
20.75507328579812,66.71045258000274,88.0179757777055,89.62158067812274
20.52591516112031,68.41676682439744,88.77095609000754,87.53293118326441
20.04000927009034,66.68411352641199,91.3518278729821,88.95336763303321
20.12810407001087,69.84724555799836,89.0052136730735,89.56421810098669
19.29583111862307,69.36366778446958,89.66796603535916,89.54125650356657
19.58147666028817,70.43953681752356,91.0294410380324,90.29687131495216
18.96575919914891,72.1870651167294,89.41697386424981,91.48365629880452
18.62816013488982,71.75955200833977,91.72677512562922,92.99953020672123
18.01364263298483,73.17103896663576,92.4432904210894,92.70199770293486
19.78895914273017,72.45121637551253,92.8603988006704,94.54181740586127
19.0386236301728,74.13036565896145,94.26543704492278,93.38324601825619
17.6345679996491,74.36722148030175,94.71027212959083,95.96540701064073
18.9285907209276,73.93702692205278,94.4983085724959,95.47485525100872
18.84065574067662,75.94551537381443,96.41275883145748,96.57982812043741
20.19664432297355,77.49014853036915,97.52253328924753,98.34602343515621
17.71843735629861,79.08236135412336,98.99364125744879,99.78702728145835
20.17742569471058,79.15407344237609,99.96109091270662,99.4704109684225
20.83775187103068,79.39457334986605,101.6481702718307,98.46899073138948
20.51249572801618,78.86721954861109,100.6042508553808,97.74447674611409
22.41016504997293,80.34820045675961,100.8903304290614,99.6353673060418
19.84727062999407,82.94452492234551,102.1490812338208,102.7447249373052
20.27026588203163,81.35977639224609,102.6348637643192,101.9908537739905
20.87776187801313,82.0730299335477,105.0289963088854,103.9956120047403
19.58920900354881,82.2705839636406,105.3906792366892,104.6767164742814
24.20133386545924,83.60917681932854,104.9815116269927,104.8805326540333
21.98936318132226,83.69722784734384,107.0735595943357,106.9082976526009
24.13162269169941,85.958292457445,106.6414963753707,106.4941190658933
25.21571283084749,85.59497543641197,110.3082632783342,110.1508970847215
26.15206318074797,82.89016620176237,109.3486101685362,108.9377071334571
25.70777063818696,82.50273894541398,109.8052512245408,111.0399030303815
26.72748209467238,83.67175345292513,112.257027996822,110.8242420927557
26.90604865235253,84.19827155174542,112.0801739360484,111.2096010529557
28.2013511162244,82.79453509489652,113.2691838053559,111.5424555677559
27.54150571394414,82.9909151354167,113.692820649885,113.1145936911807
30.36968153847796,82.95476614931152,112.3740557381807,113.3224810943068
30.10760662791548,82.77040812105288,113.1737942991401,113.9271872952893
30.71248532008087,83.29730792379138,116.3583122283183,113.3462262426272
31.67473342750225,83.11383437333112,113.8363396559916,114.544303669411
33.1954787584873,82.09569055134608,115.6628327723689,115.5311452908543
32.58163865603802,82.48339646498508,113.6433205368964,115.3336108573951
35.74537480145701,80.49003005661233,117.0599857963784,115.8087928348708
36.65259892666269,79.48341063637234,115.9212314357953,116.4816570041182
36.86904258395099,79.93492392008592,117.1152647529116,116.103807665984
36.82713600900632,79.88724904808379,115.8818130074777,116.4168828939683
38.21495443291718,77.98719802039412,117.3429504149727,116.6308307960947
39.26979700407522,77.70522408522876,115.7947617894178,115.7690888622445
42.03218536950399,77.28733107151162,118.0519611827304,117.8744585771932
42.48310338245458,75.85918947152051,119.122215693384,117.9051620314427
41.56532988043021,74.86251379237621,118.1231452099008,116.7860197971075
43.44744475017914,75.46674644538145,117.8926203737921,117.7444119748275
44.34068702318971,74.36246100262161,118.4390661198114,117.8036735232854
43.36209243793689,74.04662169754108,119.3934281037691,117.4177479333347
46.00813968768394,73.35126231984958,118.876472715881,119.1079772343676
47.0192738720818,71.38436507947762,119.6672934779355,119.2722924646645
47.80341747641035,70.28936771074697,118.0786904424883,118.4612078713514
48.52463970578804,70.2297607418714,119.6385825041556,118.5465815346677
48.46883776103449,67.70997465328213,119.8236465761102,117.6016731046879
48.6362189457828,69.56783819042172,118.9992379389329,118.4535810535378
49.74070696695601,65.94786174017395,120.6232011708409,119.2483035325207
52.12863742936659,66.36415044850305,121.1093064270759,119.2831492151398
53.96653241504315,65.50847873852807,121.4596920285718,119.6932994188878
53.61540463424964,65.40925092518141,120.3081520452214,120.1253165649438
55.35840393432223,65.46299391648981,119.943918005337,120.2692974001714
53.46326153171874,63.09767838375806,121.9298520532849,121.3058118777103
57.82878361629098,63.07869080581784,119.8533783218669,118.8912233388861
56.7342207123702,64.74663107434456,123.2171036604814,122.3491803359981
57.2888662773173,62.9035617025238,121.7379336133064,121.913370080305
57.88832351849869,63.62427247667493,122.41355321637,120.664850788959
59.32155967026143,63.73009050001305,123.9690222933994,121.5691923425725
61.17871535946713,62.72883816359975,124.2109714022837,121.5781172216699
61.7515332144247,62.26418906470752,124.1181103328601,123.6105142856531
59.66139293172157,61.16573717055998,125.0774394132433,122.9966376185706
64.15091999086435,63.61345169477017,124.7554187812398,121.5697770647195
62.5823468473798,60.98895359630765,125.1164942367174,123.5367694982625
60.95806339688249,60.98258846161369,124.9926479582149,126.4869905140071
60.9140862073456,61.52425828322063,125.6962642957991,125.2498867758627
61.34130706422253,61.49863614850646,125.9114358574118,127.1457118684544
63.34241041910456,62.45224500069033,125.5333225284223,125.6188987883585
63.41821961454138,63.83775709708947,127.335080072061,127.5548799770502
64.29858553951576,63.71141350587894,128.286155672346,126.6377292512234
62.97277402633635,64.6137437071672,128.3688847124373,127.9666076057918
65.91974005244045,65.98600585787555,129.666329246946,130.0469720964623
61.99394811931867,62.71206970541373,129.119897449282,127.2941649310421
66.9223997837432,64.0929377549277,128.4845363587436,130.6524017830052
64.97373527724865,65.98419989086216,131.8774434600944,131.4211999882824
65.77119175234589,66.4379752874148,131.4066772531523,131.4814702080126
66.64359862267108,67.66463337744636,133.3285677835497,131.7036723537803
64.20123129877014,67.43086745156491,135.082299628706,133.1298810456361
64.58866987188898,69.39845677482472,133.9739864687019,132.9410413282098
63.439413049415,69.13147828004547,134.8986887612599,135.0130224001475
63.75534020189473,70.03755809345765,134.0241056827268,133.2690286587455
63.03858060568584,68.87577718419611,136.8761051703669,135.9665843846336
62.4540318744023,70.90975501938169,137.1621276044416,136.3513088393169
64.11959048299022,74.44629205904839,136.1789826973091,136.2234186529525
63.6756646856757,70.83462503512258,138.009715517351,134.9923946886815
62.26242691734426,73.99336136034481,137.839812499591,137.0486892369367
63.04441250335547,75.17070755406947,136.7721755252318,136.3172309597012
61.44678106741171,75.56553708937253,138.4237451865657,137.0091502802316
61.52635784556301,75.54530305410893,139.4072803506404,137.0313142662037
60.29252835075385,76.38354534683822,140.3069850087802,139.1621181016694
59.85111295447795,77.63386105849611,138.2830670041641,137.6845315845869
58.97547796971021,81.20035385916981,139.0133962653392,138.59194420268
61.19020820900515,77.89586163878566,138.75677729444,138.5525860773611
59.34684710020341,79.94902117028725,139.5326269278405,140.0090873246224
58.94586071317262,79.5966705558521,142.6557047983123,138.3597675789433
59.62884715563359,80.03252806261534,140.219765167635,138.1227581592368
56.12969189827793,81.20883078698603,140.1348986541763,137.9850076466706
56.05830514585573,79.95777915215949,137.7978699285545,137.9117726431683
56.30705182779325,82.12953847490841,139.5423943347665,137.6276996535939
55.01701544591894,81.50115270659829,137.5613284392321,135.7995887553147
54.78329789022477,81.74429817849735,138.4384637485169,137.0481570536021
53.68993315167912,84.54765334761672,138.0909492232043,136.9533350730089
52.44817270687124,82.49476750781849,135.9033377407333,136.5604218422054
51.49387267889593,84.69935101935248,136.153293817972,134.7796181551479
51.33627682565982,85.19526848236401,135.1821408106306,134.2992940862736
48.7858182525762,85.03840720685841,134.484726734439,134.8795759968948
47.11620879174401,84.23955947501229,132.9104328976008,132.6231511298653
49.65429272741365,83.49229333219807,130.7365870373798,131.1769524439057
44.21159115119227,84.45030298417433,132.9240535618768,131.8694933675592
45.62889292315429,84.18130480910393,131.4874013616586,130.0343508127222
42.46802175893063,82.55452341236645,129.5553966908331,126.7512622451731
43.23244186286671,84.01973345776253,127.5934218243118,127.5385375309008
42.34115287311025,81.43232763089148,127.604161770159,124.9037665506224
41.96207669650362,79.97936005540089,124.666209144903,124.7554663655939
40.17505803119834,82.94031353036868,123.1337128847191,123.2554905884964
40.13687782620021,81.79990388422095,122.1333291845449,120.4889964836195
40.10192448279466,82.0758611496523,119.9424454688044,119.1624960237452
35.96983535216246,80.86332063518167,119.9269211733535,118.58334100543
38.22727672533296,78.35379505218744,118.6468887897592,115.9210156680873
33.84652214772704,80.40381571820636,115.5810006771097,112.6210299935908
34.22121867283364,77.72047488569162,115.9662760996926,112.10104122608
35.35531418756954,76.94361870013967,113.314326621067,111.9717375241945
34.22450209530349,77.29141581087819,111.446204651629,111.1555183478837
33.25666491270371,75.67483724552454,109.671140074983,106.2832707437727
30.19244726219906,73.26129464262505,106.8442463217432,105.515015134814
31.57275250898376,75.34960829706058,107.0459852873266,103.9354424407018
30.86517196278738,73.95447622192343,105.235034857562,102.9094711342927
29.80109228951964,71.90946135927625,102.7194099052683,102.8656983149426
29.6253420772447,72.06732554787307,100.9521359896564,99.71630085236242
28.94709702696671,70.76654256232025,100.5849434196452,99.10426425254157
26.56115592304673,69.15573241747613,99.02716444747659,97.48008279355867
24.78418533654676,69.57228044361626,95.90666833982453,97.54529163838367
26.33537187348392,68.11286543046067,96.85609072147234,95.24271946578519
25.81819466947164,69.97590451638514,95.25901065020319,92.32775931197925
22.65777082404461,68.12522360079539,94.41060492417027,91.1206876160926
23.53371277948552,66.70982004571135,93.58426028607258,90.31430607120151
22.14690485845916,65.45389458071269,91.6505206242018,89.28032424480688
21.88927459245922,64.87143440120141,89.53799052545317,86.74091845309289
21.13176756646086,63.32455885023993,88.15477091364848,87.95906419393532
20.650492216804,65.07239800036511,86.73618798465691,85.4256595584153
22.07239227700819,66.02603463659879,85.29725554612531,84.59254340266247
21.1478548183376,64.12091277642494,86.56753409122541,84.33942522695727
19.39157684907443,62.48271848400575,84.81803355132499,82.92485370105091
20.93333798869941,60.60942422309572,85.43193196126259,82.53622981735657
19.2743605142967,61.32168059154055,85.27955327771546,80.41170355286359
20.1287256298132,62.9271036974246,83.21844937201189,81.97110580570634
18.43333105538178,62.39100183383314,82.27908300367916,80.49508953368696
20.48502320408768,63.49214597273122,83.48983218646732,83.77353540458402
17.80887627397296,63.4166926726669,83.76589818215287,81.27217394844715
19.76518335658239,63.59328453010824,81.59268324647651,81.1083287951313
20.09043730023483,62.59116619760681,84.00008612643641,81.50946963594723
17.6263125793257,62.76958507158395,83.82946955314851,80.06102266531477
18.45301510137375,62.33686017951668,82.60551370547246,81.35852497586042
20.36318394010599,63.32707539008624,84.46995473035332,82.21838220397092
19.1718298402479,61.43799292315878,84.87925132245563,81.99515428251961
19.34153862705379,61.49415174902757,85.13782913874273,83.04896108140638
18.2785235802817,62.4074252733165,85.06876833651822,82.9904177443572
20.5602494215959,63.79159199103017,85.71085596828812,84.52715467168215
18.7800534959082,64.48053331430981,86.96515134188313,84.24546682364385
21.02440735972171,63.89116983194282,87.90333349338785,85.50463927325546
21.58605657213907,66.0357388898439,88.74755542198552,86.71112083949836
20.34646859912099,67.76315173495803,88.81234247790992,88.6249655083131
21.89919037234355,66.89119185582798,92.43991631828723,90.83271221237983
22.96636554586246,69.0155413990243,91.56685806880901,91.52244945904694
22.2282362450457,67.57305290222203,93.22806798182863,90.6264858247862
23.46522944193254,68.14646850002097,95.02485015053909,93.43688177605745
24.89464788952958,70.56048626123876,96.5673906475602,93.19750516478861
24.77866631070658,71.1028287534254,95.30840154091752,93.82843600571336
25.53618434877939,72.0534631483509,98.78661213238409,96.13708282810065
27.03312564994643,69.7785757154127,97.94637717282573,97.15597078571973
26.62382897416913,71.8686883349592,100.7138085524209,101.8111662136124
28.30523094644721,74.03245444332498,103.3526794340202,101.2242138877156
27.9013957416389,72.33486815630583,104.4539802943181,101.858540035221
30.17758151076515,74.059977831506,103.8224446172111,104.2470103510176
30.17500346561242,76.68840592308052,108.738679015683,106.3450296935957
31.04931967320728,76.50149242981028,110.6108686858873,105.3999888111587
30.60090326124481,75.89785903145872,111.1943637436201,108.499586657676
31.45394255329271,79.42767577153161,111.1938080035745,111.4734513442327
34.60841879717594,80.03116679245689,114.8027665130908,111.2049616760518
33.20602257579187,80.36115136624886,115.3607332826707,114.1356552574409
32.35552184621456,78.81765213770119,117.0133256401951,115.1499484691625
37.33750894901625,80.41248151071696,119.4763667216678,116.7543193756495
35.82187586064978,82.02278097014378,120.0006026338198,116.2695837277431
38.46452821636701,81.52606967095953,122.2851563137948,121.6104033404524
39.37873555236957,82.602939386068,123.3573888245227,121.7459769676741
39.60640414774977,82.26719416770226,123.2271951404922,121.3464069579156
40.73381281732028,82.82070054839272,123.9194572507886,124.1119356813627
41.84102381389796,82.42963411951648,127.4034176234028,124.8461638340202
43.1294134698582,83.30874136101316,128.0963927017934,125.9446970648041
43.04504461764798,84.67607472723085,129.6314205545504,127.3189781802522
45.13195111419044,84.75293297851792,131.250815747005,128.7559668272413
45.10276984038645,83.02394622661519,131.9070273202656,128.9536868770633
46.56777169372591,85.18022655779048,131.6893459862191,131.2880083119001
49.08691248095291,83.99002351462062,134.8046555014845,132.8681189383664
49.41656196154374,83.79322158366494,136.0166848447577,131.5466365301837
48.7909348473889,83.99991393796354,135.1088365265905,131.752522086164
48.43081006152688,82.92049996754359,135.4883466822687,132.8281894314655
52.25739891601638,81.9515690912678,134.9333370128053,132.9007620085015
51.99839439930376,81.92647494752546,137.2821993357039,133.8459879869327
51.42090457526665,81.14827167672641,137.8832500554461,136.8065488640796
53.79743763533595,84.00204445640128,138.9948620556131,134.724070658801
54.11408620881436,80.53264204673901,139.1893469317785,133.213984379471
53.72497494474886,81.48057723686783,138.2575131280716,137.5322556779804
55.37514432456027,79.61273592031696,139.6122105295859,136.3510267705506
57.6003567561439,80.67910881539365,138.2064579512324,135.9297154570111
57.70146679438452,79.90294103878541,139.0586804830353,136.5322208827297
57.96610864189308,79.81753974277022,136.6306829165343,136.2479517234521
57.40988981155548,76.32169714954291,139.2109878299977,136.6519103053622
60.21496377441808,77.71847516673688,138.2272912215072,137.6323244402866
57.47568406456691,75.68400903955941,137.634346581263,135.8376036245454
60.56046289970197,74.52201884658774,138.5548212711319,137.6745867773002
61.79178177968773,73.64067536608761,136.8893908520525,136.2950142765716
62.15685149622919,73.95017166218278,135.7803516483138,135.7022189049516
61.87380446247813,74.38308832682782,139.0875927230722,134.978645807541
63.68589238527076,72.12789275096016,135.6814375956788,134.8978920603242
63.1931809965441,71.59371941684995,138.6322313413391,134.4690047926464
63.56114049505142,68.70140782560307,135.7533511124502,132.6528760102865
62.94479039019047,70.24980958479092,136.7868085479615,135.0631658371518
64.18889872449884,68.60631053026275,135.214238649303,133.9921692013902
65.81019313742462,67.34576794491488,135.0486710801114,131.506702063877
64.69046827032352,67.49188287941863,134.4126734177074,133.2414668008935
64.23513295986352,66.86600362359985,132.6280593923142,131.3535233454775
63.89602267618049,66.97720943935751,133.1681489702568,133.1457501587887
65.67661111006477,67.90326332330808,132.1271542202963,131.385305142355
64.29025715841416,65.44738095387221,133.3708966368255,127.9347936390985
66.37264220466692,65.49353689412689,132.0295555268577,129.4826074974966
64.27030865671271,64.14201515459011,130.9389559242083,131.061874507737
66.49648791399463,62.90395509069762,130.4448308718122,128.444106931344
65.0598113420497,62.79046299883337,129.3760248002223,127.5134074438049
63.76257452574092,62.26282177117142,130.7312196940142,128.0000432228626
64.98296923382982,61.04171489338113,128.2244300728377,126.3930658655702
65.12646717667451,62.03365721246583,128.2966050417996,126.6944716133454
63.64383838355074,61.75862320690828,130.5288369936694,125.5392004078614
63.28116608251442,62.5225328161472,130.6649873832464,124.7246507887049
62.97919448555965,60.40535359471403,129.2826833298118,124.1084139757685
63.71175103852426,61.94993038099442,127.7815051120126,125.2705564691293
60.90561581761342,63.38382199361426,128.4268215640262,124.310129033941
62.77798112029055,60.77059057506585,128.3947206940713,125.7656104313502
63.18684768770466,61.61111073915797,126.9852264722933,124.311242056469
60.77924893295029,61.50851229232658,125.7377262393402,123.4849548757562
62.16236230288379,63.91938597024238,124.704789928351,122.7125126447383
59.19655673542157,61.99304337050661,125.5171631742442,122.1738955306566
59.98210153982212,64.02884544101819,126.0087814638913,122.7885406888333
58.02599122797439,64.86443017428614,124.6966552047899,123.8425307446767
57.91602174024442,64.8580363536268,124.6816174491843,122.2736836290214
56.27880435262851,65.3399544033487,125.7428456267923,121.9212255745812
57.11274940989988,63.71933187826521,124.3500230155934,121.706463778875
56.72348358514372,65.23852901548992,124.6912550022461,121.7027083406967
54.87921748986678,67.35530828185487,123.9247810195322,121.2852785667777
51.83192674354143,67.90774594285804,123.1896194780795,121.7174331898901
50.50187568907296,68.44473957320075,124.8313662530746,122.2610060845186
52.44200189098068,68.98909870852549,125.3824568651426,121.160222703293
51.32941958114827,68.46513680556706,123.1116509703615,121.651424920885
52.05301477183845,71.50101485863108,124.484612798486,121.7350140244592
49.02794925768773,72.51992035491355,123.3541621569314,120.4571963759461
49.54315838808057,71.42360927599067,124.8688199975274,121.0199635825374
45.8966764479061,74.20631910685603,123.8385705152574,121.612380944545
47.32928098265929,74.71279398822981,123.4782494811694,120.4682610795542
46.39503041361083,73.70561699662669,124.4900212259315,120.7301667827189
45.69207504461847,76.4779339157775,123.6209811720788,120.0459066413254
44.08201893986016,76.91078026738236,122.9884088583124,121.7799324433496
44.11411961130995,76.24763669493827,123.2347666960593,119.9500581083077
42.28174438986435,76.20302239737234,124.0821617147385,120.622617889835
41.84040229706356,78.26213873347425,124.24460284297,120.2185081562433
41.67867339664885,78.2107188690327,120.5898756442316,120.2461837381853
39.57845064636175,80.17214037917456,122.4025562113216,118.9733483362752
38.07827802586745,80.64771910144837,122.2592141749871,120.2178523642286
37.25761000689457,80.33623273222642,120.3394448905952,117.7762361012735
36.86162569760558,83.45289383345295,122.1410590662248,117.2865518648603
34.73017088004604,83.70933075424288,121.6615106400307,118.0804410710487
33.85661546502159,83.61279583038997,119.2380697152801,117.0053798579943
33.98108525881224,81.66317690937312,120.4291863054885,118.9017317825221
34.1280781589656,82.4564111526913,119.9932244887225,115.6821941339947
31.54053258422892,82.89151550248152,120.4216486085274,117.5359436474567
31.24300814478369,84.81188911166008,118.5258009204023,113.6506407270918
30.33997592857289,84.71360924479823,116.5289378468346,115.3315237381923
29.38819508635109,83.00310831540669,116.6693098033007,110.8240596979263
29.91593027208339,84.78477539205721,116.3168360185248,112.3839614602459
28.54248271323058,83.49419874013796,114.2041533061534,112.32023675806
26.57254743629751,84.10621632555635,113.4015413817063,113.4262981823818
23.27479844946794,84.09588605461802,112.55026425679,108.3933945292888
26.29439915781738,84.58679496511576,112.1923133287296,109.9050578506024
25.67255122666374,83.43876622307511,112.5914381352036,108.16487449103
23.7069398256405,82.63771309194694,110.5923132228632,109.5671856675609
22.02755262893846,83.45557208846246,109.7291519500023,107.4539314689389
22.40407064989186,83.89752190669233,109.4198841625496,105.0699191221969
21.8952206814003,82.24950800259062,109.2966093675022,105.2191569802233
23.83910661085643,81.2744013435389,106.4492189362675,105.2448524729073
22.69749797834906,82.24373547431843,107.6169827498125,101.3467399224961
20.24351960014686,79.14712897406869,106.7528067791053,101.4480758299603
19.6213826216394,78.01738898293394,104.8484113211232,99.75431171845462
20.72376893342797,79.52205127617648,101.4247550228269,98.81241632056475
20.06882819223845,77.48198594138697,101.8471301626086,98.7502439434154
21.70467665993346,76.34428310619131,100.5230140231022,97.60062322913659
19.83395295407306,77.97429419160709,101.0646500770272,97.14933137230871
19.64640118252474,75.72391531833445,98.63866855498661,96.77412187687446
18.68963849467526,74.36107762797953,96.9510998759163,95.74341724125283
19.83532405520888,72.62743026718371,96.52966557113974,93.73268536382702
17.08873563232365,73.59777165949093,97.19161712524814,94.26627443502097
18.92396098344929,72.48446843349832,94.73635863929543,91.79088024383978
19.96179824546798,72.97412205553755,93.87362099192178,90.0376587488707
19.06603999935022,72.48478285563209,94.20161615980531,90.40255429731602
18.50090401097648,71.6530235256854,90.50751912654277,90.92593125699719
19.70597847426994,68.37276083241177,94.17174278443876,89.07460969224321
20.3314946304082,68.13408528199813,92.85348827238353,86.85660939479614
18.19996363349353,67.50436378072563,92.52141707624716,88.00606151195518
20.41132914389702,67.49143402534736,91.06713615729318,87.52262851155176
19.61561784212008,64.25838562291432,90.08786945897916,86.72037863172316
18.71567977119064,67.78916018990398,87.88755757690097,86.86709585585245
20.41430333134702,65.47852818300548,89.05378916866078,86.95259251899299
19.26343050230436,65.49060605841473,90.66059856327098,86.60885771586625
23.04886519383849,62.11095118417766,89.91673059429294,85.82649093361414
20.07655417337236,63.24392525543543,88.55489853545178,87.16660690382837
24.55353715019631,63.52543500375537,89.399768760052,88.17049403771991
22.1339576751159,64.1364821479394,89.41574576901347,86.28900165974618
22.61442878419717,62.35324965599807,89.0411253359909,87.0352186925743
24.06616257205815,63.40147735943872,91.80567998117724,87.85327713088274
25.73143356455505,63.19668355502315,90.21191490284463,87.90728799938694
25.56504717973486,62.30890973888726,92.77742028701226,86.79074452204756
22.7124075072217,63.26249215127773,91.37410211548975,87.88327173118908
25.77852534602928,62.2594933197956,92.60771479264989,88.73561442837675
28.76009201711495,60.75614114938152,94.14988792368614,90.23213490359332
28.6721045801467,62.81954300120151,94.07170099914276,90.03137512262371
29.18909583076734,61.07432312970613,97.19754976750997,90.89482918188449
31.02659116911947,63.02147182334921,95.46198730119418,91.90651297745498
30.76266793205387,62.91979946726141,96.86193804734323,92.29206763012476
31.33412602715546,63.55140178089741,96.60538795748167,95.57152929547361
33.23431873889641,64.50951734759731,99.0366366183664,96.72683501670919
32.1846662594306,63.60550654826746,99.78473134627764,95.27795449179966
34.85499034368576,65.54238651377928,102.6864594015787,98.85244436787082
36.54917796515533,63.16250705821078,104.3751385437391,100.3855722429582
36.58313771980375,64.40019082174467,105.7249410633286,100.7527483394659
35.76858435638437,65.74065195390196,107.4626184014003,103.8156850867729
38.80074975813728,67.79745099598749,108.2786650384128,104.99998875252
41.17560146284879,66.67497836978026,109.9539479311938,105.6567687637761
39.30399604797459,65.57167221240356,111.2965466539206,107.9474669307707
41.41086593460221,67.97146289602263,110.5428622072126,108.3659105952722
42.00134960912582,69.16102994263699,114.4027367806219,110.8693736826383
43.91533210757358,70.31673700878733,116.4060361089512,113.0959624598997
41.94307901724762,69.79163386448548,117.446673991492,113.2329490421109
45.4655482498793,69.45539229853722,118.9174516006683,115.9780434297398
44.80068776638112,71.69567527630942,121.5025947566611,118.6436238623898
46.8453271145614,72.19297969409297,125.02276739692,118.5727556446605
46.77351127174227,73.2918053103196,124.0074670017027,121.7430148748872
49.0550681744288,74.90351685772885,127.4336650911795,120.4829391519865
49.49925148212054,75.13045848868227,128.2369918054801,123.7283358234208
49.47238355329203,76.36028131579279,130.3021974401147,127.1731056494158
51.99410436790271,76.35581463763612,132.8373229653233,128.1394733026804
51.21201157517813,77.93391337383633,133.4891741624195,130.2239382365912
53.26835234797897,76.83743627422187,134.6883865310305,132.1815003798993
55.45634491816597,78.35580087994295,136.5796593976007,133.585800997301
54.88635777551202,78.72646701376061,140.1526094207024,134.7764738695874
56.63315941205369,80.19718422215782,140.5422398699195,135.5176767721248
57.63276707023036,79.20491544550396,141.1609953131423,137.1507255208869
56.68383177102028,81.82276289727962,142.3559016864808,139.3845987510205
58.84242221497014,82.02162473266857,143.5134704777633,139.0919045976963
58.95632623693579,81.88213021414415,143.0187783773766,142.3606307844463
60.74911015725472,82.79801059931827,145.9912483748186,141.3638874233744
60.70141002523753,83.05363297138916,147.3756431771355,144.1572020400664
59.66701306246988,82.03115110955487,147.8839426563362,142.6624039907595
62.14643770510129,82.36667513290942,148.3120253649784,144.1618621539614
60.41316229589398,84.36828869973715,148.3671331354298,144.5643698914124
62.37863298300785,83.69916673165233,148.9317866778275,144.6329504396953
61.10262200069679,82.71301778416483,150.2974817421666,146.3526342408564
63.24172840767928,83.98078093825265,149.8007430354073,146.8359789549391
62.15242624676621,83.33411247220522,152.6713730409645,147.3108216325127
62.59334580094933,83.48949461646447,150.2050017994075,144.7154771900029
62.9414876632477,83.64451733651569,152.488494689195,146.7355474529446
64.08864622970788,83.93536603234288,149.934265628234,147.9628716248658
64.68087210195127,81.9666831543262,151.0097830663463,147.5049879809103
63.57723076847622,85.66142094606148,152.9707251230481,146.2709719558769
63.32325708931375,79.56015083227935,151.2925593911104,146.4752677777225
64.01921665597472,82.83936359950484,149.2069738727177,147.9458788143893
63.44860181344068,81.28535959380615,149.7524211376759,146.6946217381584
65.6479532442609,81.59216129141814,149.2097424929681,145.2638245532414
65.08958538956163,80.47676103870434,147.5505318164991,144.9678904787084
62.90657281026778,78.84187006937466,148.8176103068266,144.1853233652027
63.61441671619549,78.4408667242966,148.4005590797874,143.544955301559
65.4585767048317,78.90832295563187,146.8551189285118,143.572313152674
64.32531063136885,77.4441506231464,147.5010904985628,143.9190879849593
63.72077618995559,75.67551976761375,146.3548892937585,140.3997676830006
64.22061913755944,77.47897720548832,144.5150044207109,142.0082167946838
64.49005622017319,75.32257270329647,142.6887616788676,141.1142019087922
61.82511547326965,76.14013460260412,141.322628691897,138.1744227409311
63.49345232249272,74.2300562262418,141.493647876499,135.2946593913317
63.3348462488884,74.97454377312,140.2022802255859,136.2868001682728
62.39041622911153,71.17564491112482,139.7477801869966,134.7956745334963
60.83748002726807,71.77732518746728,137.4274216162559,133.4376388225844
61.34764770198411,71.29407881978045,135.1223148442731,132.0353707839941
61.51266878049846,70.48552440445211,134.7301654977229,133.0605641812118
59.1473933039388,68.16879142760109,133.3888048588721,130.2704597086201
61.07989105157645,70.69106460377738,132.6369280934141,128.8702001576856
59.30612714285343,67.27868302348392,130.8153685930687,126.079526587528
57.5991259072531,67.47606328102515,128.7848200393966,123.3951142195076
56.64236215302602,66.76978099455519,129.8615495102112,122.8044774699049
56.27059257258385,66.82125721339357,126.1501064265749,122.6293773317602
56.18162373862784,64.7637768183951,125.113574393848,123.6371103120252
56.18670319215018,64.03175050298044,124.3401439187974,119.655964605521
56.41068556955734,63.13117943612006,126.0570548515811,119.1164304807713
55.31214915551211,63.43509624085846,123.9060357499047,116.4887153320612
52.2626133504077,62.373040740391,119.6864618520047,115.5232810422591
52.39081998731302,65.73393895260379,119.506883060675,113.7087906789152
51.70497422350189,60.81345097840655,118.6846917162856,114.5683138934901
51.09130596768232,62.28432128778926,116.970643340814,112.7431358236263
49.60433502243207,63.0767201999098,115.5954555614065,111.3756111088474
47.58808358399934,62.90246804451979,115.8847392890418,110.5026102327747
46.62269614763549,62.11738574677702,113.4279433484863,108.5135474351973
47.30352611593838,62.59788660835557,112.0673959154052,107.4344143716954
45.54592515514489,62.01848516129671,112.5522620631994,107.4874296943157
43.37016353662319,61.18976768161736,110.0062670900526,107.2028453774814
42.08458882520622,65.59779507109425,109.5298000462062,105.8659898297001
41.89787122408337,63.20542707797633,108.4261874298373,104.3425577275318
40.90794019384977,63.58013323127739,107.5780236627161,105.0482418401974
40.80413178293242,63.76817270491788,109.5395146057302,103.5478159944026
40.31765219686881,64.43865328296513,108.052275883989,103.4252277585419
39.68975418154339,64.38595636899733,108.513271058322,103.3324680551473
39.42030102847825,65.27393382190947,107.0811219064131,102.5667732057649
36.2523877559773,65.88481284941798,105.2614058770574,101.5973647533841
37.26802835889096,65.76491568061306,104.9550369943335,101.4503386246303
35.80927989583471,67.35082302452874,106.7783059916589,99.93902395167426
34.31325130505213,66.5973353468377,105.6240194191109,99.48718173306368
33.41841529129123,66.98677179514488,105.2694965856601,100.5633616881204
31.14284879909729,68.01313400774254,105.5135603376513,99.69184742453263
32.57719245218402,70.53211920387874,103.6396601473065,100.9157943543453
29.83746138196657,69.90873779747452,106.2493263546731,100.1635811776758
28.69985757360033,69.32020890778725,103.5934460428796,100.8738069723544
27.89074409550075,70.94920922544829,104.7201519974608,100.7102933175482
27.80314260771506,70.22973380409429,104.7571796214511,99.01331122980228
28.18491747232872,73.17633978050566,102.8566005013702,98.94506201913275
28.73112957324775,73.85106356900133,105.0907206012656,102.0921666906594
26.53911031425909,74.54589951220106,105.1866694756059,102.1830481114211
25.70194272631335,73.2136566657323,105.3513654683476,99.95746606418111
24.06434572410259,75.32386230336915,106.3386075493898,101.0331743457019
22.94571488592346,76.05009372260163,106.6910307054666,100.4794698931446
23.41967826275639,78.17140741078968,105.9619696815504,100.2696013079467
24.15899368738724,78.67287227260199,105.3943241441638,101.7486679716467
23.41284630440322,78.48425516914944,106.8101277571098,103.4355299176714
22.40396013477419,79.22281295104864,106.611220211794,101.0900517633867
21.21504301331737,78.29922244054703,107.5773624715358,101.661615138829
20.74300024206244,80.7051855998177,104.5712097885388,101.548144187336
20.60866968763487,80.64109291828416,106.1753079207635,101.7456861404106
20.45978776582651,81.41525055293999,107.0957838788352,102.0990552298356
19.52905506961018,82.14124720702529,107.8344194384822,103.3805304677694
20.54662133951798,84.2328014393882,109.7434555087155,103.335780286386
19.98787794553224,83.07076313189737,105.7526570332144,103.3054230786139
19.60836020821946,82.44461525697191,107.4591789962496,102.5091806229428
20.81235120152596,81.37754716308086,107.3609083111354,103.2885740838759
19.95977889451656,82.50508045471724,106.558124974631,102.7662382867125
17.08018462325311,84.3233815970606,108.7873352542236,103.0717338033182
20.77964667761691,82.85518750676786,110.2453653748751,105.2073952463214
20.76010009056208,83.51285244781407,108.2693637651643,102.8737352996824
20.11439243663789,84.78682953179676,107.8494142534743,104.3202128033831
19.52500634103739,83.47360388730375,108.4144648241151,103.1981269593967
18.21729899882598,83.78403280485757,107.7934202793889,101.9907059172596
18.60421570425411,83.69477278028494,106.7856043382097,104.6422732891744
19.3699461595625,83.45012446069948,108.4223863298838,102.8809412466944
19.31148213305825,81.2269551830455,108.3915744045607,103.1393820543782
18.55424006848731,81.35028345434611,110.3250084624065,102.3112682462743
20.27409147379182,81.46294814668731,106.9240405279489,101.016900632066
22.60067210790111,83.12990886593278,108.7881161798239,100.4113025064363
20.57630001801066,82.39915533867993,109.0089536555185,102.7798302023357
22.25314345623415,81.12500089496992,106.8279327657848,103.9734891314006
21.22085347840235,80.28548122882214,106.5212108865107,101.5503496131411
23.71758748307561,79.82786725786602,108.160418371234,102.6592405175198
22.89162913903974,77.66513803559755,108.4172129786958,103.446349462766
25.5510310255187,78.48700619416243,106.0794630020398,101.3172117030053
23.54420815403853,76.47255121373814,106.8472073669842,100.1577141407899
24.7768940645181,76.45870655808717,105.3561626105165,101.6981916955006
25.48183169204161,77.01674053347408,106.4086785788987,102.6451033362384
26.50724317069448,74.86065129680163,105.6629849486951,100.6051061547764
27.68658925016178,73.51907227714182,107.1004552234636,100.7904755191025
29.75067708721246,73.9696268389221,106.8674988900188,101.0630175295253
28.47625085140166,71.37810765947,106.7506171175984,100.9868625603266
29.8625171263167,71.619756889931,107.1633722404125,100.7418299006496
30.17484954701569,70.218668923728,105.213938322609,99.28251955866658
32.8701708097084,71.61267897490826,107.6990662392511,101.6057964730862
31.35914898454942,68.39919063865752,106.1783800468439,102.1482474296033
34.61207415106502,67.20953075161418,106.2228836469442,100.784682654075
32.9893416048057,66.78963898485978,107.8021567949944,102.7842197193197
34.15543014829203,66.0054222803932,106.4748105928129,100.6950770814285
35.44155989819216,66.31434332989376,107.1420078117697,102.8032788316175
36.46449622345362,65.72882458644794,106.8770608959805,102.4407792822319
38.46023063048222,66.16066631630605,110.1609467917138,102.3450151811391
38.70349555194486,63.64191488255196,108.1667859743064,103.13367818967
39.63937186815054,64.63184532224736,108.2907400711243,102.8302013205479
40.13704025844143,63.26297460834848,109.7352773965756,104.9905143638272
40.84926571979371,62.48558204160831,110.0684620705163,104.3343729239389
42.9197467287225,64.79843563768223,110.6359546614474,106.0487092597633
44.26751957195141,61.34124926695499,111.6882100267478,105.1514348692096
43.86669951953361,62.0433781366266,113.1216915292471,105.7302099710464
45.2261061421485,61.14219775221833,112.3934845329044,106.4559249444617
46.16159642281772,61.19028115932353,112.5668359459842,107.984611660989
46.11512938057223,62.3352989153888,114.1157771703929,109.619211378268
47.82992585427055,62.66938004188157,114.6375382467537,108.9828740342693
49.84401043938612,62.32554410972197,115.1183992977572,111.0375337337536
50.03270400705701,63.95934302183819,117.6416326931886,111.1968169307701
51.4162775743254,62.28616909795036,117.6917759574165,112.1305574387082
51.16669662209635,63.84794471209887,119.4900273650829,114.718871536672
52.58881279374897,63.64690768891169,120.2046054375055,116.7122859014032
54.73999018826382,63.18433014661147,121.4220335532467,115.8358665955259
55.54773934268238,62.69400267265901,122.3868340698569,117.7150171684349
52.62651732014054,65.48519211566379,126.7787633860859,119.669320841209
55.77720589870277,64.86024409421232,126.9235956106448,119.7234737000014
56.84094682324665,64.04308173706271,126.5299299090303,121.9908079925434
58.90594227005086,65.16640247389741,129.365723190512,121.8284254572646
58.8684820381423,65.69702112133595,129.4155833399998,123.6233671339458
60.29523668162948,65.24487200308036,132.0715858995153,128.0668352206924
60.19095827946295,67.40866649824913,131.6731243201382,126.9811002182198
60.54725578276047,68.53481349791156,132.6166827206342,128.674176651551
59.15358616435345,69.25751777924206,135.4275411442075,128.7549830846905
61.63730506792354,69.68780397554409,134.8427753171002,129.8567555867954
60.79832034948853,69.50939602619924,137.6181757831605,132.5869382108461
61.84167765236744,71.86983845717255,138.1974305945426,133.4504833446904
63.90889887738739,70.7888146350266,139.7789215041386,134.3967514529928
60.85751716924254,72.50165575720217,141.793238772696,136.1437765793545
65.01005257912419,73.93101087349223,139.3945685596046,137.2830990612128
63.43735354867434,75.41336563046877,143.2350073903705,138.3461814486164
62.67703285953589,75.72437087491789,145.7965406918532,140.1726501239469
64.77545499692276,77.51681471480562,145.042868526252,141.5915854120167
63.85456068489042,74.6387494854372,149.1337393431093,142.5465735493833
66.848250432127,77.78161548035818,147.6554533257617,139.9065045286469
63.70405749807377,79.00719847540405,148.5017225974267,145.1666518230917
64.33938259965079,78.78221004934545,149.3401561974779,142.246228179141
65.49583927414514,79.33207135317227,150.3510752217629,143.4451303995697
65.02476060833975,81.76630184052138,151.7203185770544,144.7563792739556
67.20687472001026,81.80169253861978,152.930732789284,145.477381642418
64.75844489134252,81.1681750069982,152.3724246217469,147.8463811049353
63.38438414979306,82.67837180772048,151.156644418651,147.3451842500149
63.81585171389554,82.63781822013298,152.3127048554268,146.3903666912068
65.22098454972664,81.19280522780834,152.4120610381557,146.7636758902109
62.99171387863839,81.88520900233611,153.3747376256691,147.688482006347
64.04507329302274,83.99934494198881,154.9827886678287,147.0476391474882
64.32729560578798,84.68871996766757,152.2940281779499,146.118115691623
63.03847013651144,84.45373519984774,152.5353582447033,147.626265044242
63.69086462623266,82.84738262716513,151.360122588025,146.7851827959485
62.03003462942295,85.04941847512785,151.5861204336429,145.4069869009674
63.13237416065122,84.05699001183918,153.2393031164646,147.6461876999635
60.91482339155215,85.81241735176798,150.3826463709838,144.0067936819001
60.05534746075272,84.28960179680055,151.8522201938787,147.2929085036534
60.97614634733807,83.75245325461103,149.1160399465435,144.6070425447991
58.99423464298239,84.12845226742995,149.4426375978346,144.9561072898415
58.79505106243619,82.78021363246746,147.2072780866276,143.8326371553666
59.34591645208766,81.86760294985096,146.4194265318925,139.3013117921815
60.43001585463608,82.88937020897998,145.542482358303,139.7716576993481
59.78196235142723,82.39258551062585,145.7002986958496,139.9453141874849
57.77562907240426,82.25019709756153,143.7833863486842,137.7378924259613
55.13259677827547,80.78724568430488,141.8064415307673,138.0820425572267
54.0686301505728,79.69904371732706,142.3904542083359,135.7282569113468
53.09552714183016,79.64135574295612,140.4194307647565,133.0017814602519
54.0591546998252,80.40787981218425,140.9468003460978,134.1800183713995
52.75269131784959,75.52843564490098,137.2666050366154,131.4037756263445
51.81621522721021,77.93528718868866,136.8589123348937,130.9218085913559
50.3848539243864,79.24124409356807,134.0489850051815,127.2392013509266
50.0590937936494,76.31391273355042,131.9476922722985,126.8490848225651
48.69959239235536,76.41063466214473,130.5264504867925,125.5397223941926
47.17859627911655,75.68016437494724,127.6006368353528,122.5587955351405
45.49346582726874,75.06094961865908,127.9855531356155,121.7642259474909
46.64580044376332,71.68280582609835,124.820236434265,120.3943515215676
45.20464592729173,72.36054354109076,125.2938586446462,117.5628475114767
44.66563763587448,70.29661730401052,121.0052138230339,116.9048180071877
42.55016221173948,72.36336865211341,120.1226453510742,114.0164014898545
42.7403187399357,69.7195534288258,118.5804907402639,114.395674026431
41.16894743858825,69.96291786622521,116.551280010494,108.9049019287779
42.08140622391484,69.35069454153007,114.3434012955378,109.7568742186137
40.04440576530531,67.57716759946493,112.5845354773455,107.7116807663128
37.980989327264,66.72276145648583,112.4141510949188,107.0667908464378
37.56002673659993,68.05416189766328,110.7911524132004,103.9677623738606
35.05392314757115,64.6549744364761,108.3072722530195,102.0928881889678
36.17381186969085,66.16312817081463,106.3541389181769,99.91637202996863
35.55734007347782,64.90503222133958,105.9296040989825,98.84642668578222
33.24318809645717,63.92525839056717,103.1859195398034,97.0469647604579
32.91524527517994,64.46131761704522,100.9810306947854,97.22248100335899
31.53668017401807,63.63888138650079,102.8711911523249,96.9899259065263
31.90517699005219,64.50716459258091,98.54238119893866,95.35885716068159
31.74405526475509,61.72561179202925,97.96259415274045,95.58310365708644
29.97096088963372,63.51946543140963,97.87073166964446,93.0147707444991
29.49621595480831,63.03765209300897,97.80168419485632,92.22493778770432
27.63325200578759,61.87429580262944,95.78522031506917,88.2007820362184
27.0914750314268,60.92115053652768,94.75949072616473,90.02378286932569
25.69627707183181,62.52519374035575,96.27341322940784,89.29056136103644
25.40170357497394,61.53157767005307,95.41862183573201,87.42274052805062
24.62191636008798,62.3968416880255,93.14044142038637,88.81540352449981
24.10125894422658,61.94529785420847,93.98193814363009,86.4461688928215
23.54329686309863,62.88972186801607,92.01240719026868,85.39025910495667
22.41381684471975,61.96092293605982,91.75692496084449,86.64109048631373
22.32068584637378,63.27357621940555,92.00006726755549,85.44640183036404
21.57053791857443,65.37616515708433,92.0348308851846,85.64244851038744
19.58940554907011,62.81732391862371,91.73611708224951,85.13471577664119
22.18935567150707,62.98189167401183,92.39765367542923,87.13818935924787
21.29689022993097,65.918245309855,90.70468057512092,85.14768003092027
